{
  "project_info": {
    "project_number": "160766629064",
    "project_id": "cat-app-tutorial",
    "storage_bucket": "cat-app-tutorial.appspot.com"
  },
  "client": [
    {
      "client_info": {
        "mobilesdk_app_id": "1:160766629064:android:e27a60f8bc58fac7e401fd",
        "android_client_info": {
          "package_name": "com.example.cat_apps"
        }
      },
      "oauth_client": [
        {
          "client_id": "160766629064-6f0opa6n490dtsm35re08mpnjp28gqem.apps.googleusercontent.com",
          "client_type": 3
        }
      ],
      "api_key": [
        {
          "current_key": "AIzaSyD4k9UrESSDDgG0b2_7WyninaR0hEq9hMg"
        }
      ],
      "services": {
        "appinvite_service": {
          "other_platform_oauth_client": [
            {
              "client_id": "160766629064-6f0opa6n490dtsm35re08mpnjp28gqem.apps.googleusercontent.com",
              "client_type": 3
            }
          ]
        }
      }
    }
  ],
  "configuration_version": "1"
}